2016/06/01 * guld pre-founding contributions
    shama:Assets                              100 GULD
    shama:Income:guld                        -100 GULD
    guld:Liabilities                         -100 GULD
    guld:Equity:shama                          100 GULD
